<!-- README.md is generated from README.Rmd. Please edit that file -->
FARS
====

The goal of FARS is to provide functions that work with data from the US National Highway Traffic Safety Administration's Fatality Analysis Reporting System (F.A.R.S.), which is a nationwide census providing the American public yearly data regarding fatal injuries suffered in motor vehicle traffic crashes.

fars\_read function
-------------------

This function allows to read a compressed (.bz2) or a csv file. It counts with only one argument "filename" which is a caracter that contains the name of the file with its respective extension. This function returns the read data in a "dataframe", "tbl\_df", "tbl" format. And it will generate an error if the filemane is wrong or have a wrong extension.

``` r
fars_read(make_filename(2013))
#> # A tibble: 30,202 x 50
#>    STATE ST_CASE VE_TOTAL VE_FORMS PVH_INVL  PEDS PERNOTMVIT PERMVIT
#>    <int>   <int>    <int>    <int>    <int> <int>      <int>   <int>
#>  1     1   10001        1        1        0     0          0       8
#>  2     1   10002        2        2        0     0          0       2
#>  3     1   10003        1        1        0     0          0       1
#>  4     1   10004        1        1        0     0          0       3
#>  5     1   10005        2        2        0     0          0       3
#>  6     1   10006        2        2        0     0          0       3
#>  7     1   10007        1        1        0     0          0       1
#>  8     1   10008        2        2        0     0          0       2
#>  9     1   10009        1        1        0     0          0       1
#> 10     1   10010        2        2        0     0          0       4
#> # ... with 30,192 more rows, and 42 more variables: PERSONS <int>,
#> #   COUNTY <int>, CITY <int>, DAY <int>, MONTH <int>, YEAR <int>,
#> #   DAY_WEEK <int>, HOUR <int>, MINUTE <int>, NHS <int>, ROAD_FNC <int>,
#> #   ROUTE <int>, TWAY_ID <chr>, TWAY_ID2 <chr>, MILEPT <int>,
#> #   LATITUDE <dbl>, LONGITUD <dbl>, SP_JUR <int>, HARM_EV <int>,
#> #   MAN_COLL <int>, RELJCT1 <int>, RELJCT2 <int>, TYP_INT <int>,
#> #   WRK_ZONE <int>, REL_ROAD <int>, LGT_COND <int>, WEATHER1 <int>,
#> #   WEATHER2 <int>, WEATHER <int>, SCH_BUS <int>, RAIL <chr>,
#> #   NOT_HOUR <int>, NOT_MIN <int>, ARR_HOUR <int>, ARR_MIN <int>,
…
``` r
make_filename(2013)
#> [1] "C:/Users/Freddy Tapia/Documents/R/win-library/3.5/FRED/extdata/accident_2013.csv.bz2"
```

fars\_read\_years function
--------------------------

This function allows to select the variable "MONTH" and "YEAR" from the data for the accidents that happend in the year or years entered. The argument of the function is "years" an integer that represent a year or years. This function will return a list with the variable "MONTH" and "YEAR" for the year or years entered. It will generate an warning message if the year or years entered does not exists in the database.

``` r
fars_read_years(c(2013,2014))
#> [[1]]
#> # A tibble: 30,202 x 2
#>    MONTH  year
#>    <int> <int>
#>  1     1  2013
#>  2     1  2013
#>  3     1  2013
#>  4     1  2013
#>  5     1  2013
#>  6     1  2013
#>  7     1  2013
#>  8     1  2013
#>  9     1  2013
#> 10     1  2013
#> # ... with 30,192 more rows
#> 
#> [[2]]
#> # A tibble: 30,056 x 2
#>    MONTH  year
#>    <int> <int>
#>  1     1  2014
#>  2     1  2014
#>  3     1  2014
#>  4     1  2014
#>  5     1  2014
#>  6     1  2014
#>  7     1  2014
#>  8     1  2014
#>  9     1  2014
#> 10     1  2014
#> # ... with 30,046 more rows
fars_read_years(2013)
#> [[1]]
#> # A tibble: 30,202 x 2
#>    MONTH  year
#>    <int> <int>
#>  1     1  2013
#>  2     1  2013
#>  3     1  2013
#>  4     1  2013
#>  5     1  2013
#>  6     1  2013
#>  7     1  2013
#>  8     1  2013
#>  9     1  2013
#> 10     1  2013
#> # ... with 30,192 more rows
```
…
